##################################
Music [ Audio next generation ]

Index:
1.0 Der Dateibrowser:
  1.1 Abspielen einzelner Tracks
  1.2 Abspielen eines Verzeichnis
  1.3 Abspielen aller Lieder
  1.4 Auswahl anderer Medien
  1.5 Suchen von Liedern
  
2.0 Der Player:
  2.1