<?xml version="1.0" encoding="UTF-8" standalone="no"?>
<!-- Created with Inkscape (http://www.inkscape.org/) -->

<svg
   xmlns:dc="http://purl.org/dc/elements/1.1/"
   xmlns:cc="http://creativecommons.org/ns#"
   xmlns:rdf="http://www.w3.org/1999/02/22-rdf-syntax-ns#"
   xmlns:svg="http://www.w3.org/2000/svg"
   xmlns="http://www.w3.org/2000/svg"
   xmlns:sodipodi="http://sodipodi.sourceforge.net/DTD/sodipodi-0.dtd"
   xmlns:inkscape="http://www.inkscape.org/namespaces/inkscape"
   width="90"
   height="90"
   id="svg4874"
   version="1.1"
   inkscape:version="0.48+devel r12833"
   viewBox="0 0 90 90.000001"
   sodipodi:docname="save.svg">
  <defs
     id="defs4876" />
  <sodipodi:namedview
     id="base"
     pagecolor="#ffffff"
     bordercolor="#666666"
     borderopacity="1.0"
     inkscape:pageopacity="0.0"
     inkscape:pageshadow="2"
     inkscape:zoom="5.0931703"
     inkscape:cx="-35.99919"
     inkscape:cy="39.474432"
     inkscape:document-units="px"
     inkscape:current-layer="g4281"
     showgrid="true"
     showborder="true"
     fit-margin-top="0"
     fit-margin-left="0"
     fit-margin-right="0"
     fit-margin-bottom="0"
     inkscape:snap-bbox="true"
     inkscape:bbox-paths="true"
     inkscape:bbox-nodes="true"
     inkscape:snap-bbox-edge-midpoints="true"
     inkscape:snap-bbox-midpoints="true"
     inkscape:object-paths="true"
     inkscape:snap-intersection-paths="true"
     inkscape:object-nodes="true"
     inkscape:snap-smooth-nodes="true"
     inkscape:snap-midpoints="true"
     inkscape:snap-object-midpoints="true"
     inkscape:snap-center="true"
     showguides="true"
     inkscape:guide-bbox="true">
    <inkscape:grid
       type="xygrid"
       id="grid5451"
       empspacing="6" />
    <sodipodi:guide
       orientation="1,0"
       position="9,71"
       id="guide4063" />
    <sodipodi:guide
       orientation="1,0"
       position="6,69"
       id="guide4065" />
    <sodipodi:guide
       orientation="0,1"
       position="64,87"
       id="guide4067" />
    <sodipodi:guide
       orientation="0,1"
       position="63,84"
       id="guide4069" />
    <sodipodi:guide
       orientation="0,1"
       position="78,3"
       id="guide4071" />
    <sodipodi:guide
       orientation="0,1"
       position="78,6"
       id="guide4073" />
    <sodipodi:guide
       orientation="1,0"
       position="84,75"
       id="guide4075" />
    <sodipodi:guide
       orientation="1,0"
       position="81,75"
       id="guide4077" />
    <sodipodi:guide
       orientation="0,1"
       position="72,81"
       id="guide4108" />
    <sodipodi:guide
       orientation="1,0"
       position="87,66"
       id="guide4110" />
    <sodipodi:guide
       orientation="1,0"
       position="3,65"
       id="guide4112" />
    <sodipodi:guide
       orientation="0,1"
       position="80,9"
       id="guide4114" />
  </sodipodi:namedview>
  <metadata
     id="metadata4879">
    <rdf:RDF>
      <cc:Work
         rdf:about="">
        <dc:format>image/svg+xml</dc:format>
        <dc:type
           rdf:resource="http://purl.org/dc/dcmitype/StillImage" />
        <dc:title></dc:title>
      </cc:Work>
    </rdf:RDF>
  </metadata>
  <g
     inkscape:label="Layer 1"
     inkscape:groupmode="layer"
     id="layer1"
     transform="translate(67.857146,-84.50504)">
    <g
       transform="translate(-241.85715,-577.86995)"
       id="g4281"
       inkscape:export-filename="save01.png"
       inkscape:export-xdpi="90"
       inkscape:export-ydpi="90">
      <rect
         style="color:#000000;fill:none;stroke:none;stroke-width:7.5;marker:none;visibility:visible;display:inline;overflow:visible;enable-background:accumulate"
         id="rect1803"
         width="90"
         height="90"
         x="174"
         y="662.36212" />
      <path
         inkscape:connector-curvature="0"
         id="rect1815"
         d="m 186,737.37499 0,15 66,0 0,-15 z m 52,5 9,0 0,5 -9,0 z"
         style="color:#000000;fill:#808080;fill-opacity:1;fill-rule:nonzero;stroke:none;stroke-width:12;marker:none;visibility:visible;display:inline;overflow:visible;enable-background:accumulate"
         sodipodi:nodetypes="cccccccccc" />
      <path
         inkscape:transform-center-y="-25.486478"
         inkscape:transform-center-x="0.0177715"
         inkscape:connector-curvature="0"
         id="path1807"
         d="m 190.27594,683.37467 c 3.59397,7.41967 7.47179,14.93633 11.68797,22.56133 5.49921,9.82841 11.18639,19.31329 17.03609,28.44074 0.0201,0 0.0493,-0.033 0.0708,-0.035 5.72732,-9.1197 11.32949,-18.58621 16.82359,-28.40537 4.21358,-7.62034 8.13034,-15.1452 11.79422,-22.56136 l -57.41273,-2.8e-4 z"
         style="color:#000000;fill:#808080;fill-opacity:1;fill-rule:nonzero;stroke:none;stroke-width:3;marker:none;visibility:visible;display:inline;overflow:visible;enable-background:accumulate" />
      <path
         inkscape:connector-curvature="0"
         id="path1809"
         d="m 207.00005,662.36214 0,35.00002 23.99995,0 0,-35.00002 -23.99995,0 z"
         style="font-style:normal;font-variant:normal;font-weight:normal;font-stretch:normal;text-indent:0;text-align:start;text-decoration:none;line-height:normal;letter-spacing:normal;word-spacing:normal;text-transform:none;direction:ltr;block-progression:tb;writing-mode:lr-tb;text-anchor:start;baseline-shift:baseline;color:#000000;fill:#808080;fill-opacity:1;stroke:none;stroke-width:4;marker:none;visibility:visible;display:inline;overflow:visible;enable-background:accumulate;font-family:Sans;-inkscape-font-specification:Sans" />
      <rect
         y="662.36218"
         x="174"
         height="90"
         width="90"
         id="rect1813"
         style="color:#000000;fill:none;stroke:none;stroke-width:6;marker:none;visibility:visible;display:inline;overflow:visible;enable-background:accumulate" />
    </g>
  </g>
</svg>
